poropyck/demo/NM11_2087_4A_dry.csv

Model,DPO3014
Firmware Version,2.40

Waveform Type,ANALOG,
Point Format,Y,
Horizontal Units,s,
Horizontal Scale,4e-06,
Horizontal Delay,1.928e-05,
Sample Interval,4e-09,
Record Length,10000,
Gating,0.0% to 100.0%,
Probe Attenuation,1,
Vertical Units,V,
Vertical Offset,0,
Vertical Scale,0.5,
Vertical Position,0,
,,
,,
,,
Label,,
TIME,CH1,CH4
-7.2000e-07,-0.0261719,-0.0490625
-7.1600e-07,-0.0267969,-0.0515625
-7.1200e-07,-0.0257031,-0.0470312
-7.0800e-07,-0.02625,-0.0485938
-7.0400e-07,-0.0265625,-0.0475
-7.0000e-07,-0.0253125,-0.0484375
-6.9600e-07,-0.0253906,-0.04375
-6.9200e-07,-0.0248438,-0.0489062
-6.8800e-07,-0.0276563,-0.049375
-6.8400e-07,-0.0252344,-0.049375
-6.8000e-07,-0.0274219,-0.0514062
-6.7600e-07,-0.0257813,-0.046875
-6.7200e-07,-0.0252344,-0.0421875
-6.6800e-07,-0.0250781,-0.049375
-6.6400e-07,-0.0269531,-0.04625
-6.6000e-07,-0.0239844,-0.0473438
-6.5600e-07,-0.026875,-0.049375
-6.5200e-07,-0.0263281,-0.04875
-6.4800e-07,-0.0274219,-0.0534375
-6.4400e-07,-0.0253906,-0.0457813
-6.4000e-07,-0.0228906,-0.04375
-6.3600e-07,-0.0279688,-0.0526563
-6.3200e-07,-0.0269531,-0.0503125
-6.2800e-07,-0.0258594,-0.0476563
-6.2400e-07,-0.0276563,-0.0507812
-6.2000e-07,-0.0260937,-0.0498437
-6.1600e-07,-0.0242969,-0.0471875
-6.1200e-07,-0.0266406,-0.0517188
-6.0800e-07,-0.0271875,-0.0498437
-6.0400e-07,-0.0257031,-0.0495313
-6.0000e-07,-0.025625,-0.0473438
-5.9600e-07,-0.0258594,-0.0489062
-5.9200e-07,-0.0265625,-0.049375
-5.8800e-07,-0.0260156,-0.0492188
-5.8400e-07,-0.0259375,-0.0492188
-5.8000e-07,-0.0253906,-0.0475
-5.7600e-07,-0.02625,-0.0479687
-5.7200e-07,-0.0244531,-0.0465625
-5.6800e-07,-0.0244531,-0.0457813
-5.6400e-07,-0.025625,-0.04625
-5.6000e-07,-0.0265625,-0.051875
-5.5600e-07,-0.0259375,-0.0479687
-5.5200e-07,-0.0260156,-0.0503125
-5.4800e-07,-0.024375,-0.0471875
-5.4400e-07,-0.0252344,-0.0423438
-5.4000e-07,-0.0253125,-0.0485938
-5.3600e-07,-0.026875,-0.0503125
-5.3200e-07,-0.0249219,-0.0457813
-5.2800e-07,-0.0278906,-0.0446875
-5.2400e-07,-0.0261719,-0.0490625
-5.2000e-07,-0.0261719,-0.0498437
-5.1600e-07,-0.0246094,-0.0485938
-5.1200e-07,-0.0252344,-0.0434375
-5.0800e-07,-0.026875,-0.046875
-5.0400e-07,-0.0270312,-0.0523437
-5.0000e-07,-0.0245313,-0.0454687
-4.9600e-07,-0.0269531,-0.0521875
-4.9200e-07,-0.0275781,-0.0504687
-4.8800e-07,-0.0240625,-0.043125
-4.8400e-07,-0.0273438,-0.05
-4.8000e-07,-0.0266406,-0.0482813
-4.7600e-07,-0.024375,-0.0496875
-4.7200e-07,-0.0251563,-0.046875
-4.6800e-07,-0.0260156,-0.0482813
-4.6400e-07,-0.0259375,-0.0525
-4.6000e-07,-0.0258594,-0.0489062
-4.5600e-07,-0.0252344,-0.0464062
-4.5200e-07,-0.0257813,-0.0495313
-4.4800e-07,-0.0260156,-0.0496875
-4.4400e-07,-0.0245313,-0.0489062
-4.4000e-07,-0.0236719,-0.046875
-4.3600e-07,-0.0255469,-0.0504687
-4.3200e-07,-0.0269531,-0.0489062
-4.2800e-07,-0.0264062,-0.0501563
-4.2400e-07,-0.0267187,-0.0507812
-4.2000e-07,-0.0253906,-0.04875
-4.1600e-07,-0.0245313,-0.0425
-4.1200e-07,-0.0266406,-0.0496875
-4.0800e-07,-0.026875,-0.0535938
-4.0400e-07,-0.0253906,-0.046875
-4.0000e-07,-0.0269531,-0.0473438
-3.9600e-07,-0.0264844,-0.0489062
-3.9200e-07,-0.0273438,-0.0504687
-3.8800e-07,-0.025,-0.0498437
-3.8400e-07,-0.0239844,-0.0440625
-3.8000e-07,-0.026875,-0.0509375
-3.7600e-07,-0.0259375,-0.0484375
-3.7200e-07,-0.02625,-0.0473438
-3.6800e-07,-0.0270312,-0.0523437
-3.6400e-07,-0.0278906,-0.04875
-3.6000e-07,-0.0244531,-0.04875
-3.5600e-07,-0.0280469,-0.05
-3.5200e-07,-0.0266406,-0.046875
-3.4800e-07,-0.025625,-0.049375
-3.4400e-07,-0.0246875,-0.046875
-3.4000e-07,-0.0257031,-0.04625
-3.3600e-07,-0.0257031,-0.05125
-3.3200e-07,-0.026875,-0.0484375
-3.2800e-07,-0.0247656,-0.0467188
-3.2400e-07,-0.025625,-0.04875
-3.2000e-07,-0.0258594,-0.046875
-3.1600e-07,-0.0233594,-0.0484375
-3.1200e-07,-0.0239063,-0.0442188
-3.0800e-07,-0.0252344,-0.0479687
-3.0400e-07,-0.0264844,-0.0503125
-3.0000e-07,-0.0253906,-0.0479687
-2.9600e-07,-0.0265625,-0.0510938
-2.9200e-07,-0.0267187,-0.0476563
-2.8800e-07,-0.0261719,-0.0409375
-2.8400e-07,-0.0260156,-0.0459375
-2.8000e-07,-0.0271094,-0.0503125
-2.7600e-07,-0.0263281,-0.0470312
-2.7200e-07,-0.0273438,-0.05
-2.6800e-07,-0.0280469,-0.0489062
-2.6400e-07,-0.0253125,-0.0504687
-2.6000e-07,-0.0252344,-0.049375
-2.5600e-07,-0.0235938,-0.0446875
-2.5200e-07,-0.0283594,-0.053125
-2.4800e-07,-0.0274219,-0.0510938
-2.4400e-07,-0.0246875,-0.048125
-2.4000e-07,-0.0266406,-0.0498437
-2.3600e-07,-0.0264844,-0.0485938
-2.3200e-07,-0.0240625,-0.0426562
-2.2800e-07,-0.026875,-0.0509375
-2.2400e-07,-0.0257813,-0.05125
-2.2000e-07,-0.0255469,-0.0496875
-2.1600e-07,-0.024375,-0.0473438
-2.1200e-07,-0.0253906,-0.0482813
-2.0800e-07,-0.0275,-0.0473438
-2.0400e-07,-0.0246875,-0.0490625
-2.0000e-07,-0.0252344,-0.046875
-1.9600e-07,-0.0261719,-0.0495313
-1.9200e-07,-0.0259375,-0.0490625
-1.8800e-07,-0.02375,-0.045625
-1.8400e-07,-0.0259375,-0.0448438
-1.8000e-07,-0.0253906,-0.0482813
-1.7600e-07,-0.0266406,-0.0464062
-1.7200e-07,-0.0258594,-0.0507812
-1.6800e-07,-0.0255469,-0.0485938
-1.6400e-07,-0.0246875,-0.048125
-1.6000e-07,-0.0245313,-0.045
-1.5600e-07,-0.0258594,-0.04625
-1.5200e-07,-0.0275781,-0.0490625
-1.4800e-07,-0.0264844,-0.0476563
-1.4400e-07,-0.0267187,-0.0507812
-1.4000e-07,-0.0271875,-0.0490625
-1.3600e-07,-0.0274219,-0.0526563
-1.3200e-07,-0.0253906,-0.0473438
-1.2800e-07,-0.0241406,-0.0421875
-1.2400e-07,-0.0273438,-0.0514062
-1.2000e-07,-0.0271875,-0.0498437
-1.1600e-07,-0.0244531,-0.0460937
-1.1200e-07,-0.0264844,-0.051875
-1.0800e-07,-0.0261719,-0.0484375
-1.0400e-07,-0.0239063,-0.0432813
-1.0000e-07,-0.0274219,-0.0525
-9.6000e-08,-0.0263281,-0.0492188
-9.2000e-08,-0.02625,-0.0510938
-8.8000e-08,-0.0252344,-0.0464062
-8.4000e-08,-0.0250781,-0.0489062
-8.0000e-08,-0.0267969,-0.0498437
-7.6000e-08,-0.024375,-0.0471875
-7.2000e-08,-0.0260156,-0.0498437
-6.8000e-08,-0.0260937,-0.0489062
-6.4000e-08,-0.0253125,-0.0495313
-6.0000e-08,-0.0239844,-0.0457813
-5.6000e-08,-0.0248438,-0.0432813
-5.2000e-08,-0.0260156,-0.0482813
-4.8000e-08,-0.0271875,-0.0485938
-4.4000e-08,-0.0251563,-0.0492188
-4.0000e-08,-0.0266406,-0.049375
-3.6000e-08,-0.0255469,-0.0496875
-3.2000e-08,-0.0247656,-0.0471875
-2.8000e-08,-0.0257813,-0.0492188
-2.4000e-08,-0.0275,-0.0478125
-2.0000e-08,-0.0254688,-0.0482813
-1.6000e-08,-0.0261719,-0.045625
-1.2000e-08,-0.0251563,-0.0339063
-8.0000e-09,-0.0272656,-0.00796875
-4.0000e-09,-0.0249219,0.3
-0.0000e+00,-0.0241406,3.07766
4.0000e-09,-0.0276563,3.44813
8.0000e-09,-0.0260937,3.43172
1.2000e-08,-0.0257031,3.44844
1.6000e-08,-0.0263281,3.46328
2.0000e-08,-0.0270312,3.46188
2.4000e-08,-0.0246094,3.46094
2.8000e-08,-0.0271094,3.46063
3.2000e-08,-0.0274219,3.45688
3.6000e-08,-0.0260937,3.45531
4.0000e-08,-0.0255469,3.45266
4.4000e-08,-0.025,3.45141
4.8000e-08,-0.0259375,3.45031
5.2000e-08,-0.0271094,3.44297
5.6000e-08,-0.0269531,3.44953
6.0000e-08,-0.0251563,3.44141
6.4000e-08,-0.0253125,3.44156
6.8000e-08,-0.0233594,3.43672
7.2000e-08,-0.0215625,3.44203
7.6000e-08,-0.0201563,3.43906
8.0000e-08,-0.0196875,3.43594
8.4000e-08,-0.0219531,3.43359
8.8000e-08,-0.025625,3.43266
9.2000e-08,-0.0267187,3.43297
9.6000e-08,-0.0242188,3.43531
1.0000e-07,-0.02125,3.43063
1.0400e-07,-0.0221094,3.4275
1.0800e-07,-0.0234375,3.42984
1.1200e-07,-0.0274219,3.42953
1.1600e-07,-0.0267969,3.42844
1.2000e-07,-0.0288281,3.42687
1.2400e-07,-0.0271094,3.42938
1.2800e-07,-0.0258594,3.42891
1.3200e-07,-0.0282031,3.42344
1.3600e-07,-0.0259375,3.42453
1.4000e-07,-0.0267187,3.42469
1.4400e-07,-0.0273438,3.42203
1.4800e-07,-0.0285938,3.42344
1.5200e-07,-0.0271875,3.42797
1.5600e-07,-0.0285156,3.42406
1.6000e-07,-0.0283594,3.42312
1.6400e-07,-0.0267187,3.42125
1.6800e-07,-0.0257031,3.42047
1.7200e-07,-0.0260156,3.41984
1.7600e-07,-0.0275781,3.42094
1.8000e-07,-0.0269531,3.42203
1.8400e-07,-0.0283594,3.41984
1.8800e-07,-0.0271094,3.41953
1.9200e-07,-0.0272656,3.41938
1.9600e-07,-0.0253125,3.41969
2.0000e-07,-0.0266406,3.42063
2.0400e-07,-0.0253906,3.41922
2.0800e-07,-0.0264844,3.41938
2.1200e-07,-0.0258594,3.41875
2.1600e-07,-0.0270312,3.41922
2.2000e-07,-0.0271094,3.41906
2.2400e-07,-0.0267187,3.42063
2.2800e-07,-0.0260156,3.42156
2.3200e-07,-0.0272656,3.41906
2.3600e-07,-0.0253906,3.41719
2.4000e-07,-0.0239844,3.41875
2.4400e-07,-0.0248438,3.42
2.4800e-07,-0.0274219,3.42047
2.5200e-07,-0.0271094,3.41719
2.5600e-07,-0.0246875,3.41797
2.6000e-07,-0.0279688,3.41844
2.6400e-07,-0.0260937,3.41875
2.6800e-07,-0.0242188,3.41703
2.7200e-07,-0.0263281,3.42078
2.7600e-07,-0.0271094,3.41828
2.8000e-07,-0.0233594,3.41891
2.8400e-07,-0.0264844,3.41375
2.8800e-07,-0.0245313,3.41938
2.9200e-07,-0.0267187,3.41766
2.9600e-07,-0.0240625,3.41734
3.0000e-07,-0.0241406,3.41969
3.0400e-07,-0.0257031,3.41484
3.0800e-07,-0.025625,3.42031
3.1200e-07,-0.0246875,3.41875
3.1600e-07,-0.0247656,3.41859
3.2000e-07,-0.02625,3.41906
3.2400e-07,-0.024375,3.41656
3.2800e-07,-0.0251563,3.41938
3.3200e-07,-0.0253906,3.42
3.3600e-07,-0.0274219,3.41859
3.4000e-07,-0.0251563,3.41781
3.4400e-07,-0.0271875,3.41922
3.4800e-07,-0.0270312,3.42031
3.5200e-07,-0.0271875,3.41906
3.5600e-07,-0.0263281,3.41922
3.6000e-07,-0.0275,3.42203
3.6400e-07,-0.0266406,3.41719
3.6800e-07,-0.0250781,3.42031
3.7200e-07,-0.0255469,3.41859
3.7600e-07,-0.0277344,3.41891
3.8000e-07,-0.025,3.41703
3.8400e-07,-0.0242969,3.41719
3.8800e-07,-0.0280469,3.41891
3.9200e-07,-0.0273438,3.41797
3.9600e-07,-0.0260937,3.41922
4.0000e-07,-0.0270312,3.41922
4.0400e-07,-0.0264844,3.41891
4.0800e-07,-0.0235938,3.42078
4.1200e-07,-0.0269531,3.41953
4.1600e-07,-0.0260937,3.41906
4.2000e-07,-0.0265625,3.41906
4.2400e-07,-0.0250781,3.41938
4.2800e-07,-0.0252344,3.42047
4.3200e-07,-0.0253125,3.41812
4.3600e-07,-0.0253125,3.42234
4.4000e-07,-0.0259375,3.42047
4.4400e-07,-0.0249219,3.42188
4.4800e-07,-0.0257031,3.41812
4.5200e-07,-0.0246875,3.42281
4.5600e-07,-0.0230469,3.41703
4.6000e-07,-0.0252344,3.41984
4.6400e-07,-0.0267187,3.42188
4.6800e-07,-0.0245313,3.415
4.7200e-07,-0.0260156,3.42063
4.7600e-07,-0.0253906,3.4225
4.8000e-07,-0.0246094,3.41922
4.8400e-07,-0.0250781,3.42344
4.8800e-07,-0.02375,3.41844
4.9200e-07,-0.0259375,3.42125
4.9600e-07,-0.024375,3.41969
5.0000e-07,-0.0253125,3.42281
5.0400e-07,-0.02625,3.42125
5.0800e-07,-0.0254688,3.41938
5.1200e-07,-0.0252344,3.4225
5.1600e-07,-0.0270312,3.42094
5.2000e-07,-0.0260156,3.42
5.2400e-07,-0.0246094,3.42344
5.2800e-07,-0.0271875,3.42078
5.3200e-07,-0.0272656,3.41906
5.3600e-07,-0.0229687,3.42547
5.4000e-07,-0.0273438,3.41984
5.4400e-07,-0.0264062,3.42
5.4800e-07,-0.025625,3.42203
5.5200e-07,-0.0254688,3.42359
5.5600e-07,-0.0247656,3.42016
5.6000e-07,-0.0259375,3.42328
5.6400e-07,-0.0253125,3.425
5.6800e-07,-0.0261719,3.42344
5.7200e-07,-0.0250781,3.42578
5.7600e-07,-0.0276563,3.42297
5.8000e-07,-0.024375,3.42375
5.8400e-07,-0.0272656,3.42063
5.8800e-07,-0.025625,3.42406
5.9200e-07,-0.0279688,3.42125
5.9600e-07,-0.0264062,3.42734
6.0000e-07,-0.0278125,3.42109
6.0400e-07,-0.0245313,3.42734
6.0800e-07,-0.0250781,3.42125
6.1200e-07,-0.02625,3.42312
6.1600e-07,-0.0275,3.42375
6.2000e-07,-0.0264844,3.42172
6.2400e-07,-0.0277344,3.42078
6.2800e-07,-0.0247656,3.42297
6.3200e-07,-0.0275,3.4225
6.3600e-07,-0.0260937,3.42203
6.4000e-07,-0.0250781,3.4275
6.4400e-07,-0.0280469,3.42203
6.4800e-07,-0.0271875,3.42437
6.5200e-07,-0.025625,3.42469
6.5600e-07,-0.0274219,3.42563
6.6000e-07,-0.0279688,3.42234
6.6400e-07,-0.0253125,3.43156
6.6800e-07,-0.0275781,3.425
6.7200e-07,-0.0264062,3.42359
6.7600e-07,-0.02625,3.42406
6.8000e-07,-0.0254688,3.42781
6.8400e-07,-0.025625,3.42719
6.8800e-07,-0.0260156,3.42625
6.9200e-07,-0.0254688,3.42906
6.9600e-07,-0.028125,3.42687
7.0000e-07,-0.0245313,3.42906
7.0400e-07,-0.0260937,3.42219
7.0800e-07,-0.0235938,3.42891
7.1200e-07,-0.0269531,3.42625
7.1600e-07,-0.0258594,3.42625
7.2000e-07,-0.0275781,3.42469
7.2400e-07,-0.0244531,3.4275
7.2800e-07,-0.0274219,3.42547
7.3200e-07,-0.025,3.42813
7.3600e-07,-0.0257813,3.43109
7.4000e-07,-0.0259375,3.42719
7.4400e-07,-0.0264062,3.42703
7.4800e-07,-0.0266406,3.42781
7.5200e-07,-0.0272656,3.42641
7.5600e-07,-0.0260937,3.43
7.6000e-07,-0.0259375,3.42672
7.6400e-07,-0.0260937,3.43172
7.6800e-07,-0.0234375,3.43219
7.7200e-07,-0.028125,3.42687
7.7600e-07,-0.0263281,3.42891
7.8000e-07,-0.025,3.43016
7.8400e-07,-0.0276563,3.42609
7.8800e-07,-0.0278906,3.42563
7.9200e-07,-0.0251563,3.43047
7.9600e-07,-0.0276563,3.42531
8.0000e-07,-0.0242188,3.43187
8.0400e-07,-0.02625,3.42969
8.0800e-07,-0.0249219,3.42984
8.1200e-07,-0.0258594,3.43172
8.1600e-07,-0.0264062,3.42781
8.2000e-07,-0.0244531,3.43297
8.2400e-07,-0.0270312,3.42922
8.2800e-07,-0.0247656,3.43187
8.3200e-07,-0.0270312,3.4275
8.3600e-07,-0.0242969,3.43516
8.4000e-07,-0.0275,3.43391
8.4400e-07,-0.0258594,3.43047
8.4800e-07,-0.0273438,3.43094
8.5200e-07,-0.0267187,3.43078
8.5600e-07,-0.0273438,3.42875
8.6000e-07,-0.0247656,3.43312
8.6400e-07,-0.0236719,3.44094
8.6800e-07,-0.0263281,3.43063
8.7200e-07,-0.0269531,3.43297
8.7600e-07,-0.0271094,3.43203
8.8000e-07,-0.0271094,3.43047
8.8400e-07,-0.025625,3.43688
8.8800e-07,-0.0277344,3.43094
8.9200e-07,-0.0252344,3.43266
8.9600e-07,-0.0240625,3.43469
9.0000e-07,-0.0282813,3.42719
9.0400e-07,-0.0257813,3.43047
9.0800e-07,-0.0248438,3.43547
9.1200e-07,-0.0278125,3.43203
9.1600e-07,-0.0278906,3.43156
9.2000e-07,-0.0246875,3.43781
9.2400e-07,-0.0272656,3.42734
9.2800e-07,-0.0250781,3.4325
9.3200e-07,-0.025625,3.43047
9.3600e-07,-0.0250781,3.43375
9.4000e-07,-0.0252344,3.43531
9.4400e-07,-0.0267969,3.43375
9.4800e-07,-0.0253125,3.43453
9.5200e-07,-0.0282031,3.43187
9.5600e-07,-0.0234375,3.43844
9.6000e-07,-0.0265625,3.42891
9.6400e-07,-0.0235938,3.43578
9.6800e-07,-0.0258594,3.4375
9.7200e-07,-0.0253125,3.43609
9.7600e-07,-0.0271094,3.43469
9.8000e-07,-0.0257813,3.43203
9.8400e-07,-0.0274219,3.43172
9.8800e-07,-0.0247656,3.43328
9.9200e-07,-0.0226562,3.44172
9.9600e-07,-0.0260156,3.43625
1.0000e-06,-0.0259375,3.435
1.0040e-06,-0.0270312,3.43562
1.0080e-06,-0.0239844,3.43438
1.0120e-06,-0.0253125,3.43672
1.0160e-06,-0.026875,3.43312
1.0200e-06,-0.0247656,3.43375
1.0240e-06,-0.025,3.43609
1.0280e-06,-0.0278906,3.4375
1.0320e-06,-0.0253906,3.43891
1.0360e-06,-0.0257031,3.43734
1.0400e-06,-0.0265625,3.43828
1.0440e-06,-0.0272656,3.43625
1.0480e-06,-0.0245313,3.44078
1.0520e-06,-0.0272656,3.43266
1.0560e-06,-0.0252344,3.4375
1.0600e-06,-0.0257813,3.43281
1.0640e-06,-0.0252344,3.435
1.0680e-06,-0.0257031,3.43766
1.0720e-06,-0.0275,3.435
1.0760e-06,-0.025625,3.43406
1.0800e-06,-0.0270312,3.43688
1.0840e-06,-0.0253125,3.44094
1.0880e-06,-0.0261719,3.43359
1.0920e-06,-0.0230469,3.44016
1.0960e-06,-0.0261719,3.43813
1.1000e-06,-0.0259375,3.43875
1.1040e-06,-0.0263281,3.44016
1.1080e-06,-0.0264062,3.43719
1.1120e-06,-0.0291406,3.43484
1.1160e-06,-0.0289844,3.43719
1.1200e-06,-0.0276563,3.44719
1.1240e-06,-0.0275781,3.44094
1.1280e-06,-0.0264844,3.44297
1.1320e-06,-0.0244531,3.43984
1.1360e-06,-0.0257813,3.44078
1.1400e-06,-0.0242188,3.44328
1.1440e-06,-0.0276563,3.44
1.1480e-06,-0.0257813,3.44422
1.1520e-06,-0.0245313,3.44422
1.1560e-06,-0.0285156,3.44344
1.1600e-06,-0.0260156,3.44359
1.1640e-06,-0.0246875,3.44437
1.1680e-06,-0.0278906,3.43922
1.1720e-06,-0.0278125,3.43922
1.1760e-06,-0.0242969,3.44531
1.1800e-06,-0.0271875,3.43219
1.1840e-06,-0.0247656,3.43875
1.1880e-06,-0.0257813,3.43828
1.1920e-06,-0.0252344,3.43531
1.1960e-06,-0.0260937,3.44313
1.2000e-06,-0.026875,3.43859
1.2040e-06,-0.0257031,3.43969
1.2080e-06,-0.0264062,3.43938
1.2120e-06,-0.0239063,3.4425
1.2160e-06,-0.0254688,3.43547
1.2200e-06,-0.0235156,3.44141
1.2240e-06,-0.0271875,3.43969
1.2280e-06,-0.0267187,3.43938
1.2320e-06,-0.0267187,3.44
1.2360e-06,-0.0258594,3.43984
1.2400e-06,-0.0275781,3.435
1.2440e-06,-0.0245313,3.43766
1.2480e-06,-0.0230469,3.44641
1.2520e-06,-0.0259375,3.44141
1.2560e-06,-0.0257031,3.44266
1.2600e-06,-0.0272656,3.44016
1.2640e-06,-0.0264844,3.44078
1.2680e-06,-0.025625,3.44547
1.2720e-06,-0.0275,3.43844
1.2760e-06,-0.0259375,3.44391
1.2800e-06,-0.0242188,3.44437
1.2840e-06,-0.0278906,3.44375
1.2880e-06,-0.0263281,3.44328
1.2920e-06,-0.0249219,3.44406
1.2960e-06,-0.0272656,3.43969
1.3000e-06,-0.0267187,3.44797
1.3040e-06,-0.0254688,3.44922
1.3080e-06,-0.0275781,3.43766
1.3120e-06,-0.0238281,3.44281
1.3160e-06,-0.0266406,3.44344
1.3200e-06,-0.025,3.44469
1.3240e-06,-0.025,3.44578
1.3280e-06,-0.0270312,3.44078
1.3320e-06,-0.0244531,3.44328
1.3360e-06,-0.0267969,3.44313
1.3400e-06,-0.0257813,3.44859
1.3440e-06,-0.0264062,3.4425
1.3480e-06,-0.0242188,3.44578
1.3520e-06,-0.0260156,3.44344
1.3560e-06,-0.0261719,3.43984
1.3600e-06,-0.0271875,3.44984
1.3640e-06,-0.0269531,3.44203
1.3680e-06,-0.0285938,3.43703
1.3720e-06,-0.0247656,3.44344
1.3760e-06,-0.0235156,3.45094
1.3800e-06,-0.0257031,3.44594
1.3840e-06,-0.026875,3.44437
1.3880e-06,-0.0265625,3.44109
1.3920e-06,-0.0260156,3.44422
1.3960e-06,-0.025,3.44766
1.4000e-06,-0.026875,3.44422
1.4040e-06,-0.0259375,3.44766
1.4080e-06,-0.0228906,3.44641
1.4120e-06,-0.0280469,3.44688
1.4160e-06,-0.0257813,3.44656
1.4200e-06,-0.0251563,3.44625
1.4240e-06,-0.0271094,3.4425
1.4280e-06,-0.0264844,3.44672
1.4320e-06,-0.0257031,3.45047
1.4360e-06,-0.0276563,3.44375
1.4400e-06,-0.0246094,3.44328
1.4440e-06,-0.0258594,3.44234
1.4480e-06,-0.0247656,3.44437
1.4520e-06,-0.0254688,3.44922
1.4560e-06,-0.026875,3.44281
1.4600e-06,-0.0252344,3.4475
1.4640e-06,-0.0260156,3.44734
1.4680e-06,-0.025625,3.44937
1.4720e-06,-0.0266406,3.44688
1.4760e-06,-0.0246094,3.44688
1.4800e-06,-0.0258594,3.44828
1.4840e-06,-0.0264062,3.44297
1.4880e-06,-0.0271094,3.45125
1.4920e-06,-0.0258594,3.44594
1.4960e-06,-0.0282813,3.43859
1.5000e-06,-0.0258594,3.44828
1.5040e-06,-0.0230469,3.45016
1.5080e-06,-0.0259375,3.44688
1.5120e-06,-0.0264844,3.44484
1.5160e-06,-0.02625,3.44484
1.5200e-06,-0.0267187,3.44688
1.5240e-06,-0.025,3.45
1.5280e-06,-0.0278906,3.445
1.5320e-06,-0.0266406,3.44906
1.5360e-06,-0.02375,3.44594
1.5400e-06,-0.0285938,3.44969
1.5440e-06,-0.0269531,3.4475
1.5480e-06,-0.0247656,3.445
1.5520e-06,-0.0277344,3.44937
1.5560e-06,-0.0273438,3.44937
1.5600e-06,-0.024375,3.44906
1.5640e-06,-0.0267969,3.44297
1.5680e-06,-0.0259375,3.44906
1.5720e-06,-0.026875,3.44672
1.5760e-06,-0.025,3.45078
1.5800e-06,-0.0261719,3.45063
1.5840e-06,-0.0264062,3.44562
1.5880e-06,-0.0241406,3.45
1.5920e-06,-0.0267187,3.44813
1.5960e-06,-0.0247656,3.45078
1.6000e-06,-0.0271875,3.44859
1.6040e-06,-0.024375,3.44703
1.6080e-06,-0.026875,3.44625
1.6120e-06,-0.0261719,3.44375
1.6160e-06,-0.0274219,3.45141
1.6200e-06,-0.0260156,3.44891
1.6240e-06,-0.0278125,3.44422
1.6280e-06,-0.0247656,3.44813
1.6320e-06,-0.0239063,3.45562
1.6360e-06,-0.0258594,3.44906
1.6400e-06,-0.0255469,3.44891
1.6440e-06,-0.0271875,3.44625
1.6480e-06,-0.0269531,3.45094
1.6520e-06,-0.0249219,3.45203
1.6560e-06,-0.0280469,3.44984
1.6600e-06,-0.0252344,3.44891
1.6640e-06,-0.0241406,3.44984
1.6680e-06,-0.0280469,3.45359
1.6720e-06,-0.0260156,3.44844
1.6760e-06,-0.0245313,3.44437
1.6800e-06,-0.0273438,3.44844
1.6840e-06,-0.0257031,3.45328
1.6880e-06,-0.0244531,3.45297
1.6920e-06,-0.0265625,3.44344
1.6960e-06,-0.0257813,3.45234
1.7000e-06,-0.0259375,3.44906
1.7040e-06,-0.025,3.45125
1.7080e-06,-0.0253125,3.45156
1.7120e-06,-0.0271094,3.44875
1.7160e-06,-0.0239844,3.44906
1.7200e-06,-0.0266406,3.4525
1.7240e-06,-0.025625,3.45391
1.7280e-06,-0.0269531,3.45141
1.7320e-06,-0.0235156,3.45141
1.7360e-06,-0.0265625,3.44594
1.7400e-06,-0.0260937,3.44625
1.7440e-06,-0.0271875,3.45328
1.7480e-06,-0.0260937,3.44828
1.7520e-06,-0.0285156,3.45047
1.7560e-06,-0.0250781,3.45141
1.7600e-06,-0.0245313,3.45437
1.7640e-06,-0.0255469,3.44766
1.7680e-06,-0.0264062,3.45141
1.7720e-06,-0.0264062,3.44953
1.7760e-06,-0.0269531,3.44984
1.7800e-06,-0.0242969,3.45234
1.7840e-06,-0.0273438,3.44859
1.7880e-06,-0.0258594,3.45094
1.7920e-06,-0.0234375,3.45016
1.7960e-06,-0.0276563,3.45469
1.8000e-06,-0.02625,3.44937
1.8040e-06,-0.0252344,3.44688
1.8080e-06,-0.0267187,3.45297
1.8120e-06,-0.02625,3.45328
1.8160e-06,-0.0240625,3.4525
1.8200e-06,-0.0269531,3.44531
1.8240e-06,-0.0264062,3.45141
1.8280e-06,-0.0260156,3.45344
1.8320e-06,-0.0246094,3.45234
1.8360e-06,-0.0246094,3.45375
1.8400e-06,-0.0264062,3.45016
