poropyck/samples/NM11_2087_4A/NM11_2087_4Ad/tek0003ALL.csv

Model,DPO3014
Firmware Version,2.40

Waveform Type,ANALOG,
Point Format,Y,
Horizontal Units,s,
Horizontal Scale,2e-06,
Horizontal Delay,2.376e-05,
Sample Interval,2e-09,
Record Length,10000,
Gating,0.0% to 100.0%,
Probe Attenuation,1,
Vertical Units,V,
Vertical Offset,0,
Vertical Scale,0.2,
Vertical Position,0,
,,
,,
,,
Label,,
TIME,CH1,CH4
1.3760e-05,-0.00784375,-0.0678125
1.3762e-05,-0.0090625,-0.0634375
1.3764e-05,-0.00815625,-0.0648438
1.3766e-05,-0.00915625,-0.0640625
1.3768e-05,-0.009,-0.0639063
1.3770e-05,-0.008625,-0.0714062
1.3772e-05,-0.0081875,-0.0648438
1.3774e-05,-0.00853125,-0.07
1.3776e-05,-0.00878125,-0.064375
1.3778e-05,-0.00903125,-0.06375
1.3780e-05,-0.00909375,-0.06625
1.3782e-05,-0.0088125,-0.066875
1.3784e-05,-0.0078125,-0.0642188
1.3786e-05,-0.00778125,-0.0689062
1.3788e-05,-0.00915625,-0.068125
1.3790e-05,-0.00871875,-0.0639063
1.3792e-05,-0.00871875,-0.0671875
1.3794e-05,-0.00865625,-0.0609375
1.3796e-05,-0.00953125,-0.0646875
1.3798e-05,-0.008375,-0.0675
1.3800e-05,-0.008,-0.0667188
1.3802e-05,-0.00775,-0.0620312
1.3804e-05,-0.00903125,-0.0678125
1.3806e-05,-0.00865625,-0.0665625
1.3808e-05,-0.009125,-0.0673438
1.3810e-05,-0.00875,-0.0659375
1.3812e-05,-0.00746875,-0.063125
1.3814e-05,-0.00896875,-0.0664062
1.3816e-05,-0.00903125,-0.0679687
1.3818e-05,-0.00878125,-0.0653125
1.3820e-05,-0.008875,-0.0648438
1.3822e-05,-0.00840625,-0.064375
1.3824e-05,-0.008625,-0.0667188
1.3826e-05,-0.008625,-0.0614063
1.3828e-05,-0.0085,-0.0667188
1.3830e-05,-0.0086875,-0.0620312
1.3832e-05,-0.00925,-0.0665625
1.3834e-05,-0.00878125,-0.0676563
1.3836e-05,-0.0080625,-0.065
1.3838e-05,-0.00821875,-0.0679687
1.3840e-05,-0.008375,-0.0654687
1.3842e-05,-0.0089375,-0.0648438
1.3844e-05,-0.0089375,-0.06875
1.3846e-05,-0.0085,-0.06625
1.3848e-05,-0.00690625,-0.06125
1.3850e-05,-0.00784375,-0.0679687
1.3852e-05,-0.009375,-0.0704687
1.3854e-05,-0.00859375,-0.0675
1.3856e-05,-0.00884375,-0.0629688
1.3858e-05,-0.00903125,-0.0628125
1.3860e-05,-0.009375,-0.0654687
1.3862e-05,-0.0086875,-0.06625
1.3864e-05,-0.0083125,-0.06625
1.3866e-05,-0.00828125,-0.0648438
1.3868e-05,-0.007875,-0.0667188
1.3870e-05,-0.0085625,-0.0679687
1.3872e-05,-0.00903125,-0.0660937
1.3874e-05,-0.00871875,-0.0684375
1.3876e-05,-0.0069375,-0.06375
1.3878e-05,-0.00871875,-0.06625
1.3880e-05,-0.00921875,-0.0671875
1.3882e-05,-0.008625,-0.0628125
1.3884e-05,-0.0089375,-0.064375
1.3886e-05,-0.00771875,-0.06375
1.3888e-05,-0.00859375,-0.0689062
1.3890e-05,-0.00853125,-0.0645312
1.3892e-05,-0.0086875,-0.065625
1.3894e-05,-0.0075625,-0.06125
1.3896e-05,-0.0088125,-0.06375
1.3898e-05,-0.00825,-0.0679687
1.3900e-05,-0.008125,-0.0639063
1.3902e-05,-0.0086875,-0.0675
1.3904e-05,-0.009,-0.0640625
1.3906e-05,-0.00809375,-0.0642188
1.3908e-05,-0.0089375,-0.065
1.3910e-05,-0.00853125,-0.0684375
1.3912e-05,-0.007375,-0.0626562
1.3914e-05,-0.00803125,-0.0678125
1.3916e-05,-0.00940625,-0.0670312
1.3918e-05,-0.00865625,-0.0673438
1.3920e-05,-0.0084375,-0.0671875
1.3922e-05,-0.00840625,-0.0635937
1.3924e-05,-0.0091875,-0.0632813
1.3926e-05,-0.00878125,-0.0635937
1.3928e-05,-0.0076875,-0.0671875
1.3930e-05,-0.00803125,-0.0620312
1.3932e-05,-0.00865625,-0.069375
1.3934e-05,-0.00909375,-0.0654687
1.3936e-05,-0.0094375,-0.0667188
1.3938e-05,-0.00903125,-0.0657813
1.3940e-05,-0.0080625,-0.06375
1.3942e-05,-0.00890625,-0.0657813
1.3944e-05,-0.008875,-0.0659375
1.3946e-05,-0.00909375,-0.0642188
1.3948e-05,-0.0085625,-0.0639063
1.3950e-05,-0.00815625,-0.065625
1.3952e-05,-0.00859375,-0.0684375
1.3954e-05,-0.0093125,-0.0626562
1.3956e-05,-0.0083125,-0.0651563
1.3958e-05,-0.00865625,-0.0635937
1.3960e-05,-0.00940625,-0.065
1.3962e-05,-0.00890625,-0.0675
1.3964e-05,-0.0085,-0.0657813
1.3966e-05,-0.00890625,-0.0690625
1.3968e-05,-0.00846875,-0.0634375
1.3970e-05,-0.00878125,-0.066875
1.3972e-05,-0.00871875,-0.0639063
1.3974e-05,-0.0085,-0.066875
1.3976e-05,-0.00803125,-0.0642188
1.3978e-05,-0.00784375,-0.06625
1.3980e-05,-0.0089375,-0.068125
1.3982e-05,-0.00878125,-0.065625
1.3984e-05,-0.00875,-0.064375
1.3986e-05,-0.00846875,-0.0609375
1.3988e-05,-0.009625,-0.060625
1.3990e-05,-0.008875,-0.0667188
1.3992e-05,-0.00815625,-0.0676563
1.3994e-05,-0.00834375,-0.0635937
1.3996e-05,-0.00878125,-0.0659375
1.3998e-05,-0.0088125,-0.0659375
1.4000e-05,-0.00921875,-0.065
1.4002e-05,-0.00921875,-0.0664062
1.4004e-05,-0.0075,-0.0617187
1.4006e-05,-0.0093125,-0.0707813
1.4008e-05,-0.00934375,-0.0659375
1.4010e-05,-0.0088125,-0.065
1.4012e-05,-0.00896875,-0.0625
1.4014e-05,-0.00834375,-0.0653125
1.4016e-05,-0.00834375,-0.0646875
1.4018e-05,-0.00928125,-0.06125
1.4020e-05,-0.00821875,-0.0629688
1.4022e-05,-0.008625,-0.064375
1.4024e-05,-0.00940625,-0.0645312
1.4026e-05,-0.008625,-0.070625
1.4028e-05,-0.008375,-0.061875
1.4030e-05,-0.00840625,-0.0684375
1.4032e-05,-0.00890625,-0.065625
1.4034e-05,-0.00875,-0.0667188
1.4036e-05,-0.00884375,-0.0660937
1.4038e-05,-0.0084375,-0.0671875
1.4040e-05,-0.00740625,-0.06375
1.4042e-05,-0.00853125,-0.0673438
1.4044e-05,-0.00878125,-0.069375
1.4046e-05,-0.0088125,-0.06625
1.4048e-05,-0.008625,-0.065
1.4050e-05,-0.0085,-0.0635937
1.4052e-05,-0.0095625,-0.0614063
1.4054e-05,-0.00878125,-0.064375
1.4056e-05,-0.00834375,-0.0646875
1.4058e-05,-0.0084375,-0.0635937
1.4060e-05,-0.00846875,-0.0685938
1.4062e-05,-0.00865625,-0.0659375
1.4064e-05,-0.00940625,-0.0645312
1.4066e-05,-0.00890625,-0.0664062
1.4068e-05,-0.00821875,-0.0623438
1.4070e-05,-0.00925,-0.0684375
1.4072e-05,-0.00871875,-0.0675
1.4074e-05,-0.0089375,-0.063125
1.4076e-05,-0.008625,-0.061875
1.4078e-05,-0.00846875,-0.0635937
1.4080e-05,-0.00834375,-0.065625
1.4082e-05,-0.0091875,-0.0614063
1.4084e-05,-0.00878125,-0.0654687
1.4086e-05,-0.0083125,-0.0621875
1.4088e-05,-0.0091875,-0.06375
1.4090e-05,-0.00878125,-0.0660937
1.4092e-05,-0.0085,-0.0645312
1.4094e-05,-0.00859375,-0.06875
1.4096e-05,-0.00859375,-0.0634375
1.4098e-05,-0.008875,-0.065625
1.4100e-05,-0.00875,-0.0660937
1.4102e-05,-0.00871875,-0.0660937
1.4104e-05,-0.0076875,-0.063125
1.4106e-05,-0.0081875,-0.0684375
1.4108e-05,-0.0089375,-0.0692188
1.4110e-05,-0.00871875,-0.0640625
1.4112e-05,-0.00871875,-0.0667188
1.4114e-05,-0.00890625,-0.0620312
1.4116e-05,-0.00953125,-0.0629688
1.4118e-05,-0.0090625,-0.0676563
1.4120e-05,-0.0083125,-0.0617187
1.4122e-05,-0.00790625,-0.0640625
1.4124e-05,-0.00928125,-0.0689062
1.4126e-05,-0.00928125,-0.0657813
1.4128e-05,-0.00946875,-0.0645312
1.4130e-05,-0.00840625,-0.0671875
1.4132e-05,-0.0075,-0.065625
1.4134e-05,-0.0095625,-0.06875
1.4136e-05,-0.0090625,-0.06625
1.4138e-05,-0.0095,-0.0659375
1.4140e-05,-0.009125,-0.0634375
1.4142e-05,-0.00853125,-0.06375
1.4144e-05,-0.00871875,-0.0678125
1.4146e-05,-0.00934375,-0.0629688
1.4148e-05,-0.00928125,-0.0620312
1.4150e-05,-0.00834375,-0.063125
1.4152e-05,-0.009375,-0.0642188
1.4154e-05,-0.0088125,-0.0682813
1.4156e-05,-0.00821875,-0.0660937
1.4158e-05,-0.0085,-0.0679687
1.4160e-05,-0.0081875,-0.0639063
1.4162e-05,-0.00884375,-0.0657813
1.4164e-05,-0.009125,-0.0657813
1.4166e-05,-0.00934375,-0.063125
1.4168e-05,-0.0078125,-0.0620312
1.4170e-05,-0.00825,-0.0678125
1.4172e-05,-0.008875,-0.065
1.4174e-05,-0.00903125,-0.06375
1.4176e-05,-0.008875,-0.0684375
1.4178e-05,-0.00896875,-0.0632813
1.4180e-05,-0.009375,-0.0632813
1.4182e-05,-0.0088125,-0.0642188
1.4184e-05,-0.00821875,-0.0660937
1.4186e-05,-0.00865625,-0.0657813
1.4188e-05,-0.0088125,-0.0689062
1.4190e-05,-0.00846875,-0.0651563
1.4192e-05,-0.00921875,-0.06625
1.4194e-05,-0.00878125,-0.0632813
1.4196e-05,-0.0073125,-0.0635937
1.4198e-05,-0.0099375,-0.066875
1.4200e-05,-0.00928125,-0.0671875
1.4202e-05,-0.008875,-0.0625
1.4204e-05,-0.0089375,-0.06375
1.4206e-05,-0.0085,-0.0670312
1.4208e-05,-0.009,-0.0671875
1.4210e-05,-0.0090625,-0.0614063
1.4212e-05,-0.00909375,-0.0642188
1.4214e-05,-0.0084375,-0.0629688
1.4216e-05,-0.00925,-0.0648438
1.4218e-05,-0.008625,-0.0682813
1.4220e-05,-0.007875,-0.0659375
1.4222e-05,-0.00853125,-0.0640625
1.4224e-05,-0.008625,-0.0625
1.4226e-05,-0.0098125,-0.0667188
1.4228e-05,-0.00934375,-0.0634375
1.4230e-05,-0.00946875,-0.0659375
1.4232e-05,-0.008125,-0.0621875
1.4234e-05,-0.0089375,-0.0659375
1.4236e-05,-0.00896875,-0.0692188
1.4238e-05,-0.00890625,-0.0639063
1.4240e-05,-0.008625,-0.0659375
1.4242e-05,-0.0086875,-0.0651563
1.4244e-05,-0.0093125,-0.0640625
1.4246e-05,-0.0093125,-0.0646875
1.4248e-05,-0.00821875,-0.0664062
1.4250e-05,-0.0086875,-0.0629688
1.4252e-05,-0.00953125,-0.0682813
1.4254e-05,-0.009125,-0.0679687
1.4256e-05,-0.00940625,-0.0659375
1.4258e-05,-0.00878125,-0.065
1.4260e-05,-0.0075625,-0.0657813
1.4262e-05,-0.0100625,-0.0709375
1.4264e-05,-0.00921875,-0.0673438
1.4266e-05,-0.00946875,-0.0648438
1.4268e-05,-0.0090625,-0.0635937
1.4270e-05,-0.0088125,-0.0617187
1.4272e-05,-0.0085,-0.0667188
1.4274e-05,-0.00928125,-0.0642188
1.4276e-05,-0.00859375,-0.0625
1.4278e-05,-0.00875,-0.0642188
1.4280e-05,-0.00934375,-0.0660937
1.4282e-05,-0.00878125,-0.0665625
1.4284e-05,-0.00840625,-0.065
1.4286e-05,-0.009125,-0.0667188
1.4288e-05,-0.00846875,-0.0648438
1.4290e-05,-0.0093125,-0.0675
1.4292e-05,-0.00915625,-0.06625
1.4294e-05,-0.00915625,-0.0645312
1.4296e-05,-0.00803125,-0.0629688
1.4298e-05,-0.0085,-0.0665625
1.4300e-05,-0.00934375,-0.0648438
1.4302e-05,-0.0090625,-0.0654687
1.4304e-05,-0.009,-0.0626562
1.4306e-05,-0.00796875,-0.0625
1.4308e-05,-0.009875,-0.0648438
1.4310e-05,-0.009375,-0.0654687
1.4312e-05,-0.00859375,-0.0629688
1.4314e-05,-0.0083125,-0.0610937
1.4316e-05,-0.00959375,-0.068125
1.4318e-05,-0.0090625,-0.0665625
1.4320e-05,-0.00925,-0.064375
1.4322e-05,-0.00878125,-0.0670312
1.4324e-05,-0.00728125,-0.0621875
1.4326e-05,-0.0102188,-0.0679687
1.4328e-05,-0.00934375,-0.0653125
1.4330e-05,-0.00959375,-0.0626562
1.4332e-05,-0.00940625,-0.066875
1.4334e-05,-0.0086875,-0.0623438
1.4336e-05,-0.009,-0.0654687
1.4338e-05,-0.009125,-0.0648438
1.4340e-05,-0.009125,-0.0660937
1.4342e-05,-0.00909375,-0.061875
1.4344e-05,-0.0093125,-0.0657813
1.4346e-05,-0.0086875,-0.0696875
1.4348e-05,-0.008375,-0.065
1.4350e-05,-0.00909375,-0.0676563
1.4352e-05,-0.00853125,-0.0628125
1.4354e-05,-0.00946875,-0.0671875
1.4356e-05,-0.00946875,-0.0646875
1.4358e-05,-0.00928125,-0.064375
1.4360e-05,-0.00825,-0.064375
1.4362e-05,-0.009375,-0.0678125
1.4364e-05,-0.00915625,-0.0648438
1.4366e-05,-0.0090625,-0.0653125
1.4368e-05,-0.0094375,-0.0632813
1.4370e-05,-0.00878125,-0.064375
1.4372e-05,-0.0101563,-0.064375
1.4374e-05,-0.009375,-0.0660937
1.4376e-05,-0.00875,-0.0653125
1.4378e-05,-0.00946875,-0.0628125
1.4380e-05,-0.009625,-0.0685938
1.4382e-05,-0.0090625,-0.06875
1.4384e-05,-0.009875,-0.0659375
1.4386e-05,-0.00978125,-0.0625
1.4388e-05,-0.00725,-0.0623438
1.4390e-05,-0.0104688,-0.0695312
1.4392e-05,-0.00915625,-0.06625
1.4394e-05,-0.00965625,-0.0639063
1.4396e-05,-0.0095,-0.0626562
1.4398e-05,-0.0086875,-0.0639063
1.4400e-05,-0.00903125,-0.066875
1.4402e-05,-0.00909375,-0.0653125
1.4404e-05,-0.0095,-0.0664062
1.4406e-05,-0.008625,-0.0646875
1.4408e-05,-0.0093125,-0.0670312
1.4410e-05,-0.008625,-0.066875
1.4412e-05,-0.00884375,-0.066875
1.4414e-05,-0.0095625,-0.0673438
1.4416e-05,-0.0090625,-0.0632813
1.4418e-05,-0.0099375,-0.0689062
1.4420e-05,-0.00946875,-0.0646875
1.4422e-05,-0.008875,-0.0632813
1.4424e-05,-0.0085,-0.0628125
1.4426e-05,-0.0091875,-0.0659375
1.4428e-05,-0.009125,-0.0659375
1.4430e-05,-0.0088125,-0.0671875
1.4432e-05,-0.00909375,-0.0665625
1.4434e-05,-0.00965625,-0.063125
1.4436e-05,-0.00984375,-0.0617187
1.4438e-05,-0.00953125,-0.0639063
1.4440e-05,-0.0086875,-0.0653125
1.4442e-05,-0.00915625,-0.0648438
1.4444e-05,-0.00978125,-0.0654687
1.4446e-05,-0.0090625,-0.0653125
1.4448e-05,-0.0102188,-0.0653125
1.4450e-05,-0.009625,-0.0657813
1.4452e-05,-0.00846875,-0.0610937
1.4454e-05,-0.010375,-0.0701563
1.4456e-05,-0.009,-0.0651563
1.4458e-05,-0.0100313,-0.0632813
1.4460e-05,-0.0095,-0.0642188
1.4462e-05,-0.00853125,-0.0628125
1.4464e-05,-0.00875,-0.0685938
1.4466e-05,-0.0093125,-0.0629688
1.4468e-05,-0.00996875,-0.0671875
1.4470e-05,-0.00971875,-0.0625
1.4472e-05,-0.0101875,-0.0621875
1.4474e-05,-0.00859375,-0.0675
1.4476e-05,-0.0086875,-0.0665625
1.4478e-05,-0.00921875,-0.066875
1.4480e-05,-0.009125,-0.0634375
1.4482e-05,-0.009875,-0.0640625
1.4484e-05,-0.0100938,-0.0646875
1.4486e-05,-0.0094375,-0.06375
1.4488e-05,-0.00821875,-0.061875
1.4490e-05,-0.0098125,-0.0670312
1.4492e-05,-0.00915625,-0.0642188
1.4494e-05,-0.00965625,-0.0642188
1.4496e-05,-0.00921875,-0.064375
1.4498e-05,-0.00978125,-0.0629688
1.4500e-05,-0.0102813,-0.0645312
1.4502e-05,-0.00990625,-0.065625
1.4504e-05,-0.00925,-0.0657813
1.4506e-05,-0.01075,-0.0651563
1.4508e-05,-0.0095,-0.0690625
1.4510e-05,-0.0098125,-0.0698437
1.4512e-05,-0.00990625,-0.0667188
1.4514e-05,-0.00984375,-0.0667188
1.4516e-05,-0.00890625,-0.0645312
1.4518e-05,-0.0110312,-0.0673438
1.4520e-05,-0.00959375,-0.0642188
1.4522e-05,-0.010125,-0.0634375
1.4524e-05,-0.0094375,-0.0614063
1.4526e-05,-0.00921875,-0.0621875
1.4528e-05,-0.0102188,-0.0684375
1.4530e-05,-0.00909375,-0.0621875
1.4532e-05,-0.00990625,-0.063125
1.4534e-05,-0.00959375,-0.0617187
1.4536e-05,-0.01,-0.0648438
1.4538e-05,-0.00921875,-0.0682813
1.4540e-05,-0.00915625,-0.0653125
1.4542e-05,-0.00975,-0.0682813
1.4544e-05,-0.00965625,-0.0610937
1.4546e-05,-0.00978125,-0.0692188
1.4548e-05,-0.0104063,-0.0634375
1.4550e-05,-0.00975,-0.0651563
1.4552e-05,-0.0085,-0.0623438
1.4554e-05,-0.01,-0.0654687
1.4556e-05,-0.0095625,-0.0664062
1.4558e-05,-0.00990625,-0.0671875
1.4560e-05,-0.00996875,-0.0639063
1.4562e-05,-0.0100313,-0.0620312
1.4564e-05,-0.0103125,-0.0629688
1.4566e-05,-0.009625,-0.0670312
1.4568e-05,-0.0090625,-0.0645312
1.4570e-05,-0.0105,-0.0646875
1.4572e-05,-0.00971875,-0.0673438
1.4574e-05,-0.00940625,-0.0659375
1.4576e-05,-0.0104063,-0.0682813
1.4578e-05,-0.009875,-0.0651563
1.4580e-05,-0.00925,-0.0653125
1.4582e-05,-0.010625,-0.07125
1.4584e-05,-0.0095625,-0.0667188
1.4586e-05,-0.0102188,-0.0621875
1.4588e-05,-0.010125,-0.06375
1.4590e-05,-0.00959375,-0.0642188
1.4592e-05,-0.0105,-0.0692188
1.4594e-05,-0.009625,-0.0623438
1.4596e-05,-0.0101563,-0.0659375
1.4598e-05,-0.0095625,-0.0620312
1.4600e-05,-0.0107188,-0.0634375
1.4602e-05,-0.00953125,-0.0646875
1.4604e-05,-0.00996875,-0.065
1.4606e-05,-0.0100625,-0.0698437
1.4608e-05,-0.0106563,-0.06125
1.4610e-05,-0.00996875,-0.0665625
1.4612e-05,-0.0107813,-0.065
1.4614e-05,-0.0098125,-0.063125
1.4616e-05,-0.00921875,-0.063125
1.4618e-05,-0.0102813,-0.0685938
1.4620e-05,-0.00971875,-0.0665625
1.4622e-05,-0.010125,-0.0682813
1.4624e-05,-0.00996875,-0.0621875
1.4626e-05,-0.0101875,-0.061875
1.4628e-05,-0.0108125,-0.0629688
1.4630e-05,-0.0100625,-0.0660937
1.4632e-05,-0.00959375,-0.06375
1.4634e-05,-0.010875,-0.0646875
1.4636e-05,-0.0102813,-0.066875
1.4638e-05,-0.0103125,-0.0665625
1.4640e-05,-0.0105625,-0.0651563
1.4642e-05,-0.0103125,-0.065
1.4644e-05,-0.01,-0.0617187
1.4646e-05,-0.0110625,-0.0682813
1.4648e-05,-0.0102813,-0.0645312
1.4650e-05,-0.011,-0.0629688
1.4652e-05,-0.0100313,-0.0632813
1.4654e-05,-0.0099375,-0.0642188
1.4656e-05,-0.0105313,-0.0678125
1.4658e-05,-0.00971875,-0.0614063
1.4660e-05,-0.0100938,-0.0634375
1.4662e-05,-0.0102188,-0.0628125
1.4664e-05,-0.010875,-0.0609375
1.4666e-05,-0.00965625,-0.0654687
1.4668e-05,-0.0107813,-0.0657813
1.4670e-05,-0.0102813,-0.0673438
1.4672e-05,-0.0110625,-0.06125
1.4674e-05,-0.010375,-0.0701563
1.4676e-05,-0.0111875,-0.0645312
1.4678e-05,-0.0100938,-0.061875
1.4680e-05,-0.009375,-0.0623438
1.4682e-05,-0.0103125,-0.066875
1.4684e-05,-0.0105625,-0.061875
1.4686e-05,-0.0110312,-0.0664062
1.4688e-05,-0.0110625,-0.0620312
1.4690e-05,-0.0104063,-0.06375
1.4692e-05,-0.0110625,-0.0646875
1.4694e-05,-0.0104375,-0.0670312
1.4696e-05,-0.00965625,-0.0648438
1.4698e-05,-0.01125,-0.0617187
1.4700e-05,-0.0107813,-0.0659375
1.4702e-05,-0.0105,-0.0651563
1.4704e-05,-0.0114375,-0.0675
1.4706e-05,-0.0112812,-0.064375
1.4708e-05,-0.0104688,-0.0639063
1.4710e-05,-0.0110625,-0.0673438
1.4712e-05,-0.0106875,-0.0629688
1.4714e-05,-0.0107813,-0.0604688
1.4716e-05,-0.0106563,-0.0620312
1.4718e-05,-0.0100938,-0.0635937
1.4720e-05,-0.0109375,-0.0629688
1.4722e-05,-0.0108438,-0.06
1.4724e-05,-0.011,-0.0625
1.4726e-05,-0.010375,-0.0615625
1.4728e-05,-0.0112812,-0.0646875
1.4730e-05,-0.0104688,-0.0660937
1.4732e-05,-0.0116875,-0.065625
1.4734e-05,-0.0109063,-0.0679687
1.4736e-05,-0.0114687,-0.065
1.4738e-05,-0.0104688,-0.0653125
1.4740e-05,-0.0115,-0.0648438
1.4742e-05,-0.0108438,-0.0648438
1.4744e-05,-0.0105313,-0.06125
1.4746e-05,-0.011375,-0.0625
1.4748e-05,-0.0110312,-0.0646875
1.4750e-05,-0.0114375,-0.06625
1.4752e-05,-0.0116562,-0.0685938
1.4754e-05,-0.0110937,-0.0634375
1.4756e-05,-0.0115312,-0.06375
1.4758e-05,-0.0108438,-0.0640625
1.4760e-05,-0.0106875,-0.0648438
1.4762e-05,-0.01125,-0.0640625
1.4764e-05,-0.0109688,-0.065625
1.4766e-05,-0.0107813,-0.0664062
1.4768e-05,-0.0116562,-0.0635937
1.4770e-05,-0.011625,-0.06125
1.4772e-05,-0.010625,-0.06375
1.4774e-05,-0.011375,-0.066875
1.4776e-05,-0.0112812,-0.0651563
1.4778e-05,-0.0113437,-0.0617187
1.4780e-05,-0.0114375,-0.0628125
1.4782e-05,-0.0114062,-0.0632813
1.4784e-05,-0.0112812,-0.0684375
1.4786e-05,-0.01075,-0.0610937
1.4788e-05,-0.0115937,-0.0645312
1.4790e-05,-0.01125,-0.0629688
1.4792e-05,-0.011625,-0.0645312
1.4794e-05,-0.0106875,-0.0665625
1.4796e-05,-0.0115625,-0.0645312
1.4798e-05,-0.0113125,-0.065625
1.4800e-05,-0.0118125,-0.0610937
1.4802e-05,-0.0114062,-0.0695312
1.4804e-05,-0.011875,-0.064375
1.4806e-05,-0.0109688,-0.065625
1.4808e-05,-0.011,-0.064375
1.4810e-05,-0.0115937,-0.0703125
1.4812e-05,-0.0115937,-0.0615625
1.4814e-05,-0.0114062,-0.0634375
1.4816e-05,-0.0117188,-0.0615625
1.4818e-05,-0.0111562,-0.0614063
1.4820e-05,-0.011875,-0.0628125
1.4822e-05,-0.0115625,-0.0654687
1.4824e-05,-0.0114062,-0.0653125
1.4826e-05,-0.011875,-0.0635937
1.4828e-05,-0.0113125,-0.068125
1.4830e-05,-0.011125,-0.07
1.4832e-05,-0.0116875,-0.0642188
1.4834e-05,-0.0117813,-0.0615625
1.4836e-05,-0.011375,-0.0626562
1.4838e-05,-0.0115312,-0.065
1.4840e-05,-0.011875,-0.0664062
1.4842e-05,-0.011625,-0.0592187
1.4844e-05,-0.0114062,-0.0632813
1.4846e-05,-0.0117188,-0.064375
1.4848e-05,-0.011875,-0.06875
1.4850e-05,-0.0112812,-0.0610937
1.4852e-05,-0.0118125,-0.0632813
1.4854e-05,-0.0115937,-0.06375
1.4856e-05,-0.011875,-0.0632813
1.4858e-05,-0.0115937,-0.0659375
1.4860e-05,-0.0118125,-0.0642188
1.4862e-05,-0.0115625,-0.069375
1.4864e-05,-0.0120938,-0.0628125
1.4866e-05,-0.0119063,-0.0698437
1.4868e-05,-0.0118438,-0.0653125
1.4870e-05,-0.0115625,-0.0657813
1.4872e-05,-0.0122188,-0.0632813
1.4874e-05,-0.01175,-0.066875
1.4876e-05,-0.0121563,-0.0632813
1.4878e-05,-0.01225,-0.0626562
1.4880e-05,-0.0119688,-0.063125
1.4882e-05,-0.012375,-0.0620312
1.4884e-05,-0.0117813,-0.0657813
1.4886e-05,-0.0118125,-0.0648438
1.4888e-05,-0.011875,-0.0648438
1.4890e-05,-0.0120938,-0.0621875
1.4892e-05,-0.012125,-0.0671875
1.4894e-05,-0.0121875,-0.06875
1.4896e-05,-0.0121563,-0.0639063
1.4898e-05,-0.01225,-0.0640625
1.4900e-05,-0.0117188,-0.0609375
1.4902e-05,-0.0120625,-0.0695312
1.4904e-05,-0.0122813,-0.0642188
1.4906e-05,-0.0116562,-0.0621875
1.4908e-05,-0.0122188,-0.0621875
1.4910e-05,-0.0123438,-0.0646875
1.4912e-05,-0.0118438,-0.0685938
1.4914e-05,-0.0120625,-0.0621875
1.4916e-05,-0.0125938,-0.0645312
1.4918e-05,-0.0123438,-0.0642188
1.4920e-05,-0.0124063,-0.0615625
1.4922e-05,-0.0126875,-0.0651563
1.4924e-05,-0.01275,-0.06625
1.4926e-05,-0.0123438,-0.06625
1.4928e-05,-0.0124375,-0.06125
1.4930e-05,-0.0125625,-0.0679687
1.4932e-05,-0.0129063,-0.0639063
1.4934e-05,-0.0125,-0.0640625
1.4936e-05,-0.0123438,-0.063125
1.4938e-05,-0.0128125,-0.0667188
1.4940e-05,-0.0124063,-0.0654687
1.4942e-05,-0.0121875,-0.06375
1.4944e-05,-0.0124375,-0.0642188
1.4946e-05,-0.0123125,-0.065
1.4948e-05,-0.0128125,-0.0653125
1.4950e-05,-0.0122813,-0.0620312
1.4952e-05,-0.013125,-0.0620312
1.4954e-05,-0.0125938,-0.061875
1.4956e-05,-0.0135,-0.0659375
1.4958e-05,-0.0130312,-0.063125
1.4960e-05,-0.0126875,-0.0634375
1.4962e-05,-0.0128438,-0.0626562
1.4964e-05,-0.012375,-0.0632813
1.4966e-05,-0.0132812,-0.06625
1.4968e-05,-0.0129688,-0.0609375
1.4970e-05,-0.01275,-0.0629688
