ceverpy/samples/NM11_2087_4A/NM11_2087_4Ad/tek0002ALL.csv

Model,DPO3014
Firmware Version,2.40

Waveform Type,ANALOG,
Point Format,Y,
Horizontal Units,s,
Horizontal Scale,4e-06,
Horizontal Delay,1.928e-05,
Sample Interval,4e-09,
Record Length,10000,
Gating,0.0% to 100.0%,
Probe Attenuation,1,
Vertical Units,V,
Vertical Offset,0,
Vertical Scale,0.2,
Vertical Position,0,
,,
,,
,,
Label,,
TIME,CH1,CH4
-7.2000e-07,-0.0080625,-0.040625
-7.1600e-07,-0.0090625,-0.04625
-7.1200e-07,-0.008625,-0.0470312
-7.0800e-07,-0.00925,-0.0428125
-7.0400e-07,-0.0093125,-0.0457813
-7.0000e-07,-0.008625,-0.0434375
-6.9600e-07,-0.00840625,-0.0414063
-6.9200e-07,-0.00828125,-0.0410937
-6.8800e-07,-0.00840625,-0.04375
-6.8400e-07,-0.009,-0.0442188
-6.8000e-07,-0.00921875,-0.045
-6.7600e-07,-0.00865625,-0.0439063
-6.7200e-07,-0.0075,-0.0403125
-6.6800e-07,-0.00815625,-0.04125
-6.6400e-07,-0.0091875,-0.0451563
-6.6000e-07,-0.00865625,-0.0432813
-6.5600e-07,-0.00878125,-0.043125
-6.5200e-07,-0.00946875,-0.044375
-6.4800e-07,-0.0095,-0.0448438
-6.4400e-07,-0.00884375,-0.0407813
-6.4000e-07,-0.008625,-0.0390625
-6.3600e-07,-0.00828125,-0.0385937
-6.3200e-07,-0.00853125,-0.0465625
-6.2800e-07,-0.00878125,-0.045
-6.2400e-07,-0.00921875,-0.0434375
-6.2000e-07,-0.00928125,-0.043125
-6.1600e-07,-0.0078125,-0.0370313
-6.1200e-07,-0.00971875,-0.0473438
-6.0800e-07,-0.00871875,-0.0448438
-6.0400e-07,-0.00946875,-0.0440625
-6.0000e-07,-0.00903125,-0.0404688
-5.9600e-07,-0.00834375,-0.0420312
-5.9200e-07,-0.0086875,-0.0429688
-5.8800e-07,-0.00896875,-0.045625
-5.8400e-07,-0.00928125,-0.0420312
-5.8000e-07,-0.00859375,-0.0426562
-5.7600e-07,-0.009375,-0.0454687
-5.7200e-07,-0.0085,-0.04375
-5.6800e-07,-0.008375,-0.045
-5.6400e-07,-0.00815625,-0.0435937
-5.6000e-07,-0.00896875,-0.0439063
-5.5600e-07,-0.00940625,-0.0414063
-5.5200e-07,-0.00903125,-0.0453125
-5.4800e-07,-0.0088125,-0.0428125
-5.4400e-07,-0.0075,-0.035625
-5.4000e-07,-0.00815625,-0.041875
-5.3600e-07,-0.0091875,-0.0448438
-5.3200e-07,-0.00853125,-0.0420312
-5.2800e-07,-0.009,-0.0439063
-5.2400e-07,-0.008875,-0.041875
-5.2000e-07,-0.00921875,-0.0471875
-5.1600e-07,-0.0085,-0.0425
-5.1200e-07,-0.00796875,-0.0415625
-5.0800e-07,-0.0085,-0.0378125
-5.0400e-07,-0.00921875,-0.04625
-5.0000e-07,-0.0083125,-0.0454687
-4.9600e-07,-0.00871875,-0.045
-4.9200e-07,-0.00934375,-0.0439063
-4.8800e-07,-0.00778125,-0.0384375
-4.8400e-07,-0.00921875,-0.0453125
-4.8000e-07,-0.0090625,-0.0432813
-4.7600e-07,-0.00871875,-0.0434375
-4.7200e-07,-0.00871875,-0.0423438
-4.6800e-07,-0.0080625,-0.0423438
-4.6400e-07,-0.00878125,-0.0453125
-4.6000e-07,-0.0093125,-0.045625
-4.5600e-07,-0.008,-0.044375
-4.5200e-07,-0.00865625,-0.0415625
-4.4800e-07,-0.00934375,-0.0454687
-4.4400e-07,-0.00896875,-0.041875
-4.4000e-07,-0.00821875,-0.0404688
-4.3600e-07,-0.0085625,-0.0426562
-4.3200e-07,-0.00878125,-0.0428125
-4.2800e-07,-0.009,-0.0460937
-4.2400e-07,-0.0093125,-0.0439063
-4.2000e-07,-0.00909375,-0.045625
-4.1600e-07,-0.00825,-0.04
-4.1200e-07,-0.00821875,-0.0414063
-4.0800e-07,-0.0091875,-0.0439063
-4.0400e-07,-0.00878125,-0.0440625
-4.0000e-07,-0.0088125,-0.0426562
-3.9600e-07,-0.00884375,-0.0432813
-3.9200e-07,-0.0093125,-0.0457813
-3.8800e-07,-0.009,-0.0429688
-3.8400e-07,-0.00825,-0.0407813
-3.8000e-07,-0.008375,-0.04125
-3.7600e-07,-0.008875,-0.0457813
-3.7200e-07,-0.0081875,-0.043125
-3.6800e-07,-0.0095,-0.0451563
-3.6400e-07,-0.00953125,-0.0453125
-3.6000e-07,-0.0076875,-0.0364063
-3.5600e-07,-0.00915625,-0.04625
-3.5200e-07,-0.00921875,-0.0453125
-3.4800e-07,-0.0094375,-0.0459375
-3.4400e-07,-0.0088125,-0.04375
-3.4000e-07,-0.00865625,-0.0417188
-3.3600e-07,-0.00834375,-0.0451563
-3.3200e-07,-0.0091875,-0.045625
-3.2800e-07,-0.00859375,-0.0435937
-3.2400e-07,-0.00809375,-0.0429688
-3.2000e-07,-0.0091875,-0.0464062
-3.1600e-07,-0.00878125,-0.0428125
-3.1200e-07,-0.00859375,-0.0415625
-3.0800e-07,-0.00871875,-0.0442188
-3.0400e-07,-0.00815625,-0.04125
-3.0000e-07,-0.00896875,-0.0440625
-2.9600e-07,-0.00915625,-0.0445312
-2.9200e-07,-0.0088125,-0.0442188
-2.8800e-07,-0.00796875,-0.0390625
-2.8400e-07,-0.00853125,-0.0409375
-2.8000e-07,-0.008625,-0.0440625
-2.7600e-07,-0.00903125,-0.0448438
-2.7200e-07,-0.00915625,-0.0435937
-2.6800e-07,-0.00903125,-0.0467188
-2.6400e-07,-0.009375,-0.04625
-2.6000e-07,-0.00878125,-0.0442188
-2.5600e-07,-0.00840625,-0.03875
-2.5200e-07,-0.00834375,-0.041875
-2.4800e-07,-0.00896875,-0.0479687
-2.4400e-07,-0.0086875,-0.0426562
-2.4000e-07,-0.00959375,-0.0432813
-2.3600e-07,-0.009375,-0.0446875
-2.3200e-07,-0.00778125,-0.0370313
-2.2800e-07,-0.00975,-0.0503125
-2.2400e-07,-0.0089375,-0.0470312
-2.2000e-07,-0.00953125,-0.044375
-2.1600e-07,-0.0086875,-0.044375
-2.1200e-07,-0.00853125,-0.0420312
-2.0800e-07,-0.00865625,-0.0426562
-2.0400e-07,-0.0084375,-0.0439063
-2.0000e-07,-0.00915625,-0.041875
-1.9600e-07,-0.0083125,-0.0432813
-1.9200e-07,-0.00925,-0.045625
-1.8800e-07,-0.00871875,-0.0434375
-1.8400e-07,-0.00875,-0.0425
-1.8000e-07,-0.0084375,-0.0425
-1.7600e-07,-0.00825,-0.04375
-1.7200e-07,-0.00915625,-0.0453125
-1.6800e-07,-0.0088125,-0.0459375
-1.6400e-07,-0.00915625,-0.045
-1.6000e-07,-0.00825,-0.0395313
-1.5600e-07,-0.0081875,-0.0417188
-1.5200e-07,-0.00921875,-0.0453125
-1.4800e-07,-0.00890625,-0.0407813
-1.4400e-07,-0.00871875,-0.0457813
-1.4000e-07,-0.00865625,-0.0409375
-1.3600e-07,-0.00946875,-0.046875
-1.3200e-07,-0.009,-0.0432813
-1.2800e-07,-0.0078125,-0.0409375
-1.2400e-07,-0.00809375,-0.0414063
-1.2000e-07,-0.0081875,-0.0429688
-1.1600e-07,-0.00821875,-0.0428125
-1.1200e-07,-0.00940625,-0.0465625
-1.0800e-07,-0.00871875,-0.044375
-1.0400e-07,-0.0076875,-0.0373438
-1.0000e-07,-0.00925,-0.0470312
-9.6000e-08,-0.00890625,-0.0440625
-9.2000e-08,-0.0095,-0.0453125
-8.8000e-08,-0.00890625,-0.0428125
-8.4000e-08,-0.00840625,-0.04125
-8.0000e-08,-0.0085625,-0.043125
-7.6000e-08,-0.00896875,-0.0457813
-7.2000e-08,-0.0086875,-0.0435937
-6.8000e-08,-0.00846875,-0.0410937
-6.4000e-08,-0.00934375,-0.0457813
-6.0000e-08,-0.00853125,-0.0439063
-5.6000e-08,-0.00809375,-0.0420312
-5.2000e-08,-0.0085,-0.04125
-4.8000e-08,-0.00821875,-0.0410937
-4.4000e-08,-0.00871875,-0.0465625
-4.0000e-08,-0.0093125,-0.0451563
-3.6000e-08,-0.0089375,-0.0428125
-3.2000e-08,-0.00834375,-0.0396875
-2.8000e-08,-0.0081875,-0.0417188
-2.4000e-08,-0.00859375,-0.0459375
-2.0000e-08,-0.00884375,-0.0421875
-1.6000e-08,-0.008875,-0.0434375
-1.2000e-08,-0.009375,-0.0301563
-8.0000e-09,-0.00934375,-0.00375
-4.0000e-09,-0.00903125,0.290781
-0.0000e+00,-0.00834375,3.06453
4.0000e-09,-0.00796875,3.44859
8.0000e-09,-0.008625,3.43047
1.2000e-08,-0.00859375,3.44625
1.6000e-08,-0.00915625,3.46188
2.0000e-08,-0.0089375,3.46109
2.4000e-08,-0.0081875,3.46047
2.8000e-08,-0.009375,3.45703
3.2000e-08,-0.00909375,3.45453
3.6000e-08,-0.009375,3.45422
4.0000e-08,-0.0089375,3.45219
4.4000e-08,-0.00840625,3.45297
4.8000e-08,-0.00940625,3.44984
5.2000e-08,-0.0095625,3.44219
5.6000e-08,-0.00975,3.44828
6.0000e-08,-0.00846875,3.43953
6.4000e-08,-0.00915625,3.44609
6.8000e-08,-0.007875,3.43828
7.2000e-08,-0.00621875,3.43969
7.6000e-08,-0.0033125,3.43844
8.0000e-08,-0.0028125,3.43578
8.4000e-08,-0.004125,3.43344
8.8000e-08,-0.00890625,3.43359
9.2000e-08,-0.0102813,3.43328
9.6000e-08,-0.005875,3.43406
1.0000e-07,-0.00334375,3.43063
1.0400e-07,-0.00296875,3.42656
1.0800e-07,-0.00371875,3.42797
1.1200e-07,-0.00659375,3.42344
1.1600e-07,-0.00934375,3.42844
1.2000e-07,-0.0103125,3.42219
1.2400e-07,-0.009875,3.42609
1.2800e-07,-0.009,3.43063
1.3200e-07,-0.0083125,3.42266
1.3600e-07,-0.0076875,3.42563
1.4000e-07,-0.007375,3.42609
1.4400e-07,-0.00890625,3.42219
1.4800e-07,-0.00984375,3.41953
1.5200e-07,-0.010875,3.42594
1.5600e-07,-0.0115625,3.4225
1.6000e-07,-0.0116875,3.42094
1.6400e-07,-0.0102813,3.42219
1.6800e-07,-0.009375,3.42188
1.7200e-07,-0.0073125,3.42031
1.7600e-07,-0.00884375,3.42094
1.8000e-07,-0.0103438,3.41984
1.8400e-07,-0.0116875,3.42047
1.8800e-07,-0.01175,3.41953
1.9200e-07,-0.011625,3.42031
1.9600e-07,-0.00928125,3.42016
2.0000e-07,-0.00865625,3.41719
2.0400e-07,-0.008375,3.42078
2.0800e-07,-0.00896875,3.42047
2.1200e-07,-0.0103125,3.41953
2.1600e-07,-0.011375,3.41969
2.2000e-07,-0.01175,3.41812
2.2400e-07,-0.0113125,3.41844
2.2800e-07,-0.0096875,3.41672
2.3200e-07,-0.00853125,3.41828
2.3600e-07,-0.00790625,3.41828
2.4000e-07,-0.00859375,3.42047
2.4400e-07,-0.0100938,3.41906
2.4800e-07,-0.0113437,3.41766
2.5200e-07,-0.01075,3.41891
2.5600e-07,-0.0095,3.41828
2.6000e-07,-0.0088125,3.41781
2.6400e-07,-0.006875,3.41625
2.6800e-07,-0.0071875,3.41609
2.7200e-07,-0.00884375,3.41797
2.7600e-07,-0.0101563,3.41688
2.8000e-07,-0.00884375,3.41953
2.8400e-07,-0.0107188,3.41531
2.8800e-07,-0.00915625,3.41984
2.9200e-07,-0.00834375,3.41922
2.9600e-07,-0.007,3.4175
3.0000e-07,-0.00653125,3.41844
3.0400e-07,-0.008125,3.41469
3.0800e-07,-0.0093125,3.41922
3.1200e-07,-0.00965625,3.41531
3.1600e-07,-0.0099375,3.42125
3.2000e-07,-0.00928125,3.41688
3.2400e-07,-0.00784375,3.41703
3.2800e-07,-0.0075,3.41828
3.3200e-07,-0.00790625,3.41703
3.3600e-07,-0.00825,3.41953
3.4000e-07,-0.0096875,3.41734
3.4400e-07,-0.0103125,3.41922
3.4800e-07,-0.010125,3.41891
3.5200e-07,-0.008125,3.41844
3.5600e-07,-0.0083125,3.41516
3.6000e-07,-0.007875,3.41625
3.6400e-07,-0.008125,3.4175
3.6800e-07,-0.0094375,3.41969
3.7200e-07,-0.0095625,3.41828
3.7600e-07,-0.0106563,3.41859
3.8000e-07,-0.0101563,3.41859
3.8400e-07,-0.0085,3.4175
3.8800e-07,-0.00821875,3.4175
3.9200e-07,-0.00746875,3.41531
3.9600e-07,-0.0086875,3.41734
4.0000e-07,-0.0093125,3.42
4.0400e-07,-0.0096875,3.41719
4.0800e-07,-0.0088125,3.41875
4.1200e-07,-0.0107188,3.41672
4.1600e-07,-0.0094375,3.41906
4.2000e-07,-0.0086875,3.41969
4.2400e-07,-0.008625,3.42125
4.2800e-07,-0.00746875,3.41875
4.3200e-07,-0.00903125,3.41844
4.3600e-07,-0.009375,3.41938
4.4000e-07,-0.0096875,3.41938
4.4400e-07,-0.00875,3.41938
4.4800e-07,-0.00896875,3.41812
4.5200e-07,-0.00834375,3.41812
4.5600e-07,-0.00853125,3.42
4.6000e-07,-0.00825,3.41859
4.6400e-07,-0.00853125,3.41984
4.6800e-07,-0.0094375,3.41844
4.7200e-07,-0.0096875,3.42063
4.7600e-07,-0.00934375,3.42031
4.8000e-07,-0.0071875,3.42
4.8400e-07,-0.0081875,3.41688
4.8800e-07,-0.0076875,3.41781
4.9200e-07,-0.008,3.41938
4.9600e-07,-0.00853125,3.41984
5.0000e-07,-0.00925,3.42031
5.0400e-07,-0.00959375,3.41953
5.0800e-07,-0.0091875,3.42063
5.1200e-07,-0.0079375,3.42219
5.1600e-07,-0.0075625,3.42
5.2000e-07,-0.00790625,3.42219
5.2400e-07,-0.0080625,3.42125
5.2800e-07,-0.00859375,3.42047
5.3200e-07,-0.00984375,3.42078
5.3600e-07,-0.00703125,3.41984
5.4000e-07,-0.00984375,3.4225
5.4400e-07,-0.00846875,3.41984
5.4800e-07,-0.00884375,3.42047
5.5200e-07,-0.00815625,3.42266
5.5600e-07,-0.007125,3.41859
5.6000e-07,-0.0086875,3.42391
5.6400e-07,-0.00903125,3.42516
5.6800e-07,-0.008875,3.42
5.7200e-07,-0.00865625,3.42297
5.7600e-07,-0.00853125,3.42
5.8000e-07,-0.00821875,3.42063
5.8400e-07,-0.00815625,3.42141
5.8800e-07,-0.0083125,3.42312
5.9200e-07,-0.00859375,3.41969
5.9600e-07,-0.0091875,3.42
6.0000e-07,-0.0093125,3.42469
6.0400e-07,-0.00884375,3.42266
6.0800e-07,-0.0071875,3.42266
6.1200e-07,-0.00809375,3.42359
6.1600e-07,-0.00890625,3.42359
6.2000e-07,-0.00878125,3.42281
6.2400e-07,-0.00921875,3.42141
6.2800e-07,-0.00925,3.42406
6.3200e-07,-0.0105938,3.42078
6.3600e-07,-0.0096875,3.425
6.4000e-07,-0.0085,3.42563
6.4400e-07,-0.00884375,3.42359
6.4800e-07,-0.00925,3.42563
6.5200e-07,-0.00925,3.42641
6.5600e-07,-0.00975,3.42281
6.6000e-07,-0.0100625,3.42141
6.6400e-07,-0.0081875,3.42813
6.6800e-07,-0.0102188,3.42453
6.7200e-07,-0.00925,3.42406
6.7600e-07,-0.008875,3.425
6.8000e-07,-0.009125,3.42734
6.8400e-07,-0.0085625,3.42703
6.8800e-07,-0.009,3.42453
6.9200e-07,-0.0094375,3.425
6.9600e-07,-0.00946875,3.42297
7.0000e-07,-0.00865625,3.42656
7.0400e-07,-0.00959375,3.42469
7.0800e-07,-0.00853125,3.43016
7.1200e-07,-0.00828125,3.425
7.1600e-07,-0.00890625,3.42484
7.2000e-07,-0.00934375,3.42188
7.2400e-07,-0.00990625,3.42781
7.2800e-07,-0.00996875,3.42453
7.3200e-07,-0.00934375,3.42641
7.3600e-07,-0.008,3.42844
7.4000e-07,-0.00825,3.42391
7.4400e-07,-0.008875,3.42375
7.4800e-07,-0.00896875,3.42625
7.5200e-07,-0.00909375,3.42141
7.5600e-07,-0.0093125,3.42563
7.6000e-07,-0.0102188,3.42406
7.6400e-07,-0.00953125,3.42813
7.6800e-07,-0.00865625,3.43094
7.7200e-07,-0.00871875,3.42266
7.7600e-07,-0.00915625,3.42859
7.8000e-07,-0.00925,3.42766
7.8400e-07,-0.00909375,3.42297
7.8800e-07,-0.0096875,3.42328
7.9200e-07,-0.00875,3.43203
7.9600e-07,-0.00984375,3.42797
8.0000e-07,-0.0091875,3.42922
8.0400e-07,-0.00971875,3.425
8.0800e-07,-0.00909375,3.42922
8.1200e-07,-0.00884375,3.43109
8.1600e-07,-0.0093125,3.42656
8.2000e-07,-0.00928125,3.43203
8.2400e-07,-0.0096875,3.42813
8.2800e-07,-0.0086875,3.43031
8.3200e-07,-0.00934375,3.42813
8.3600e-07,-0.00896875,3.43359
8.4000e-07,-0.00871875,3.42859
8.4400e-07,-0.00846875,3.43141
8.4800e-07,-0.0091875,3.42547
8.5200e-07,-0.00984375,3.43141
8.5600e-07,-0.00984375,3.42578
8.6000e-07,-0.0095625,3.43141
8.6400e-07,-0.008125,3.43578
8.6800e-07,-0.00921875,3.42766
8.7200e-07,-0.00946875,3.43266
8.7600e-07,-0.0094375,3.42891
8.8000e-07,-0.00940625,3.43359
8.8400e-07,-0.00959375,3.43109
8.8800e-07,-0.0100313,3.42797
8.9200e-07,-0.00940625,3.43047
8.9600e-07,-0.00896875,3.43516
9.0000e-07,-0.009375,3.42594
9.0400e-07,-0.00978125,3.43094
9.0800e-07,-0.00953125,3.43312
9.1200e-07,-0.00946875,3.43094
9.1600e-07,-0.00965625,3.42953
9.2000e-07,-0.00865625,3.43531
9.2400e-07,-0.01,3.42891
9.2800e-07,-0.00928125,3.43359
9.3200e-07,-0.0091875,3.43156
9.3600e-07,-0.0090625,3.43344
9.4000e-07,-0.00846875,3.43828
9.4400e-07,-0.00890625,3.43312
9.4800e-07,-0.00878125,3.43578
9.5200e-07,-0.0093125,3.43094
9.5600e-07,-0.0080625,3.43422
9.6000e-07,-0.009375,3.43063
9.6400e-07,-0.00853125,3.43578
9.6800e-07,-0.00834375,3.43609
9.7200e-07,-0.008625,3.43234
9.7600e-07,-0.0088125,3.43406
9.8000e-07,-0.0094375,3.43422
9.8400e-07,-0.00975,3.43125
9.8800e-07,-0.00946875,3.43297
9.9200e-07,-0.00709375,3.43844
9.9600e-07,-0.0083125,3.43813
1.0000e-06,-0.0088125,3.43797
1.0040e-06,-0.00884375,3.43484
1.0080e-06,-0.00928125,3.43422
1.0120e-06,-0.00890625,3.43203
1.0160e-06,-0.00965625,3.43219
1.0200e-06,-0.00921875,3.43172
1.0240e-06,-0.0084375,3.43906
1.0280e-06,-0.00878125,3.43859
1.0320e-06,-0.00940625,3.43406
1.0360e-06,-0.00884375,3.43797
1.0400e-06,-0.009125,3.43641
1.0440e-06,-0.009,3.43328
1.0480e-06,-0.0080625,3.44109
1.0520e-06,-0.0103125,3.43344
1.0560e-06,-0.009,3.43484
1.0600e-06,-0.00946875,3.43109
1.0640e-06,-0.00925,3.43469
1.0680e-06,-0.0086875,3.43844
1.0720e-06,-0.00909375,3.43828
1.0760e-06,-0.0095,3.43797
1.0800e-06,-0.00975,3.43531
1.0840e-06,-0.00921875,3.43625
1.0880e-06,-0.0101563,3.43375
1.0920e-06,-0.00871875,3.43891
1.0960e-06,-0.00840625,3.4375
1.1000e-06,-0.0084375,3.43969
1.1040e-06,-0.0081875,3.44
1.1080e-06,-0.0083125,3.43656
1.1120e-06,-0.0102188,3.43375
1.1160e-06,-0.0103438,3.43672
1.1200e-06,-0.0111562,3.44453
1.1240e-06,-0.0115937,3.43875
1.1280e-06,-0.0115312,3.44016
1.1320e-06,-0.0104063,3.43984
1.1360e-06,-0.00853125,3.44062
1.1400e-06,-0.0078125,3.44437
1.1440e-06,-0.00884375,3.43719
1.1480e-06,-0.009125,3.44266
1.1520e-06,-0.008625,3.44547
1.1560e-06,-0.0083125,3.44391
1.1600e-06,-0.00803125,3.44062
1.1640e-06,-0.00821875,3.44328
1.1680e-06,-0.0095625,3.44109
1.1720e-06,-0.00971875,3.44359
1.1760e-06,-0.0095,3.445
1.1800e-06,-0.01075,3.4375
1.1840e-06,-0.008625,3.44047
1.1880e-06,-0.00840625,3.43922
1.1920e-06,-0.00790625,3.44
1.1960e-06,-0.0071875,3.44219
1.2000e-06,-0.00921875,3.43891
1.2040e-06,-0.0093125,3.44203
1.2080e-06,-0.00971875,3.43734
1.2120e-06,-0.00934375,3.44328
1.2160e-06,-0.00915625,3.435
1.2200e-06,-0.0076875,3.44016
1.2240e-06,-0.00815625,3.43828
1.2280e-06,-0.0081875,3.43844
1.2320e-06,-0.00865625,3.44078
1.2360e-06,-0.00953125,3.43781
1.2400e-06,-0.0108125,3.43391
1.2440e-06,-0.00934375,3.4375
1.2480e-06,-0.00678125,3.44594
1.2520e-06,-0.00728125,3.44219
1.2560e-06,-0.0076875,3.43969
1.2600e-06,-0.008625,3.43938
1.2640e-06,-0.009375,3.43719
1.2680e-06,-0.008875,3.44219
1.2720e-06,-0.0105938,3.43359
1.2760e-06,-0.0094375,3.43688
1.2800e-06,-0.00753125,3.44313
1.2840e-06,-0.00725,3.44328
1.2880e-06,-0.00753125,3.43938
1.2920e-06,-0.00834375,3.44125
1.2960e-06,-0.00925,3.43938
1.3000e-06,-0.0102813,3.43938
1.3040e-06,-0.0089375,3.44766
1.3080e-06,-0.00990625,3.43797
1.3120e-06,-0.008375,3.44125
1.3160e-06,-0.00871875,3.43969
1.3200e-06,-0.00896875,3.44062
1.3240e-06,-0.00803125,3.44859
1.3280e-06,-0.00946875,3.43922
1.3320e-06,-0.00928125,3.44141
1.3360e-06,-0.00946875,3.44109
1.3400e-06,-0.00825,3.44656
1.3440e-06,-0.00934375,3.44266
1.3480e-06,-0.00790625,3.44562
1.3520e-06,-0.008375,3.44219
1.3560e-06,-0.00890625,3.44047
1.3600e-06,-0.0085625,3.44719
1.3640e-06,-0.01,3.44234
1.3680e-06,-0.0104063,3.43438
1.3720e-06,-0.00959375,3.44109
1.3760e-06,-0.00709375,3.44813
1.3800e-06,-0.0081875,3.44422
1.3840e-06,-0.00803125,3.44375
1.3880e-06,-0.00928125,3.44062
1.3920e-06,-0.0091875,3.44094
1.3960e-06,-0.009,3.44672
1.4000e-06,-0.010375,3.44516
1.4040e-06,-0.00971875,3.44375
1.4080e-06,-0.007875,3.44391
1.4120e-06,-0.0081875,3.44719
1.4160e-06,-0.00834375,3.44391
1.4200e-06,-0.008625,3.44328
1.4240e-06,-0.00890625,3.44344
1.4280e-06,-0.00946875,3.44953
1.4320e-06,-0.008375,3.44797
1.4360e-06,-0.00925,3.44094
1.4400e-06,-0.00840625,3.44734
1.4440e-06,-0.009375,3.43922
1.4480e-06,-0.00903125,3.4425
1.4520e-06,-0.0086875,3.44813
1.4560e-06,-0.0093125,3.44281
1.4600e-06,-0.00925,3.44562
1.4640e-06,-0.00940625,3.44531
1.4680e-06,-0.00759375,3.44828
1.4720e-06,-0.0095,3.44484
1.4760e-06,-0.00809375,3.44562
1.4800e-06,-0.008375,3.44484
1.4840e-06,-0.009,3.44281
1.4880e-06,-0.00871875,3.45031
1.4920e-06,-0.0095,3.44656
1.4960e-06,-0.0104375,3.44031
1.5000e-06,-0.00940625,3.44609
1.5040e-06,-0.0071875,3.45312
1.5080e-06,-0.00825,3.44688
1.5120e-06,-0.00796875,3.44766
1.5160e-06,-0.0093125,3.44437
1.5200e-06,-0.00953125,3.44453
1.5240e-06,-0.00834375,3.44656
1.5280e-06,-0.00990625,3.44547
1.5320e-06,-0.0094375,3.44672
1.5360e-06,-0.008875,3.44625
1.5400e-06,-0.0083125,3.44875
1.5440e-06,-0.00928125,3.44547
1.5480e-06,-0.00903125,3.44641
1.5520e-06,-0.00965625,3.44422
1.5560e-06,-0.00959375,3.45078
1.5600e-06,-0.008125,3.44984
1.5640e-06,-0.00946875,3.44281
1.5680e-06,-0.00890625,3.45
1.5720e-06,-0.009875,3.44437
1.5760e-06,-0.00878125,3.44984
1.5800e-06,-0.00859375,3.44875
1.5840e-06,-0.00975,3.44562
1.5880e-06,-0.00921875,3.45063
1.5920e-06,-0.0094375,3.44641
1.5960e-06,-0.0080625,3.45047
1.6000e-06,-0.00975,3.44531
1.6040e-06,-0.0085625,3.44734
1.6080e-06,-0.0088125,3.445
1.6120e-06,-0.0093125,3.44422
1.6160e-06,-0.008375,3.45109
1.6200e-06,-0.00971875,3.44641
1.6240e-06,-0.0100938,3.4425
1.6280e-06,-0.00925,3.44531
1.6320e-06,-0.0079375,3.45297
1.6360e-06,-0.00828125,3.44828
1.6400e-06,-0.008875,3.44625
1.6440e-06,-0.0095,3.44344
1.6480e-06,-0.008875,3.44594
1.6520e-06,-0.0084375,3.44875
1.6560e-06,-0.0101875,3.44906
1.6600e-06,-0.009125,3.44609
1.6640e-06,-0.00834375,3.44625
1.6680e-06,-0.00896875,3.44906
1.6720e-06,-0.00896875,3.44703
1.6760e-06,-0.00903125,3.44719
1.6800e-06,-0.00965625,3.445
1.6840e-06,-0.00921875,3.45266
1.6880e-06,-0.0085,3.45016
1.6920e-06,-0.0100938,3.44328
1.6960e-06,-0.00921875,3.45031
1.7000e-06,-0.009375,3.44641
1.7040e-06,-0.00934375,3.45063
1.7080e-06,-0.00840625,3.45156
1.7120e-06,-0.0095625,3.44859
1.7160e-06,-0.00909375,3.44953
1.7200e-06,-0.0095,3.44875
1.7240e-06,-0.00796875,3.45266
1.7280e-06,-0.00934375,3.44875
1.7320e-06,-0.00890625,3.44937
1.7360e-06,-0.0086875,3.44797
1.7400e-06,-0.00940625,3.44422
1.7440e-06,-0.0086875,3.45359
1.7480e-06,-0.00996875,3.44844
1.7520e-06,-0.0106563,3.445
1.7560e-06,-0.00875,3.44875
1.7600e-06,-0.00753125,3.45391
1.7640e-06,-0.0085,3.44937
1.7680e-06,-0.00909375,3.44969
1.7720e-06,-0.0094375,3.44703
1.7760e-06,-0.00928125,3.44891
1.7800e-06,-0.00884375,3.45125
1.7840e-06,-0.0095,3.44781
1.7880e-06,-0.0094375,3.44937
1.7920e-06,-0.00884375,3.44859
1.7960e-06,-0.00846875,3.45344
1.8000e-06,-0.00915625,3.44891
1.8040e-06,-0.00878125,3.44828
1.8080e-06,-0.009875,3.45094
1.8120e-06,-0.0090625,3.45094
1.8160e-06,-0.0083125,3.45094
